<?xml version="1.0"?>
<svg xmlns="http://www.w3.org/2000/svg" xmlns:xlink="http://www.w3.org/1999/xlink" version="1.1" id="Capa_1" x="0px" y="0px" width="512px" height="512px" viewBox="0 0 46 46" style="enable-background:new 0 0 46 46;" xml:space="preserve"><g transform="matrix(6.12323e-17 1 -1 6.12323e-17 46 0)"><g>
	<g id="Fast_Backward">
		<g>
			<path d="M29.057,16.272C28.7,16.508,25.439,18.766,23,20.46v-3.539c0-0.62-0.536-0.921-0.944-0.648     c-0.559,0.371-8.264,5.717-8.735,6.051c-0.423,0.299-0.431,1.012,0,1.311c0.655,0.455,8.331,5.773,8.716,6.037     C22.515,30,23,29.581,23,29.02v-3.527c2.479,1.718,5.787,4.009,6.036,4.18C29.516,30,30,29.581,30,29.02V16.921     C30,16.301,29.464,16,29.057,16.272z M23,0C10.297,0,0,10.298,0,23s10.297,23,23,23c12.702,0,23-10.298,23-23S35.702,0,23,0z      M23,42C12.507,42,4,33.493,4,23S12.507,4,23,4s19,8.507,19,19S33.493,42,23,42z" data-original="#000000" class="active-path" fill="#000000"/>
		</g>
	</g>
</g></g> </svg>
